<?xml version="1.0" ?>
<!DOCTYPE svg  PUBLIC '-//W3C//DTD SVG 1.1//EN'  'http://www.w3.org/Graphics/SVG/1.1/DTD/svg11.dtd'>
<!-- Uploaded to: SVG Repo, www.svgrepo.com, Generator: SVG Repo Mixer Tools -->
<svg width="800px" height="800px" viewBox="0 0 512 512" enable-background="new 0 0 512 512" id="Layer_1" version="1.1" xml:space="preserve" xmlns="http://www.w3.org/2000/svg" xmlns:xlink="http://www.w3.org/1999/xlink">
<g>
<path clip-rule="evenodd" d="M417.508,241.77c-5.753,0-28.632,0-59.225,0h-4.238   c-0.092-0.104-0.184-0.213-0.278-0.314L417.508,241.77L273.074,92.362L128.646,240.345l65.952,0.325   c-0.343,0.36-0.685,0.725-1.022,1.099h-7.723c-34.442,0-58.633,0-58.633,0v203.483h291.71V241.77   C418.931,241.77,418.434,241.77,417.508,241.77z M259.17,240.988l28.498,0.141c-0.191,0.211-0.367,0.428-0.556,0.641h-4.936H264.95   h-5.103C259.62,241.509,259.406,241.244,259.17,240.988z" fill="#FEE1E3" fill-rule="evenodd"/>
<path d="M399.352,218.66c-0.961-0.967-2.153-1.677-3.441-2.09L253.598,69.349c-1.606-1.665-3.805-2.594-6.117-2.602   c-2.31-0.007-4.514,0.917-6.125,2.575L96.919,217.308c-0.187,0.191-0.322,0.407-0.486,0.61c-0.302,0.229-0.595,0.473-0.864,0.742   c-1.587,1.587-2.499,3.784-2.499,6.034v203.483c0,2.251,0.912,4.449,2.499,6.042c1.593,1.587,3.791,2.497,6.039,2.497h291.71   c2.244,0,4.441-0.91,6.034-2.497c1.587-1.593,2.504-3.791,2.504-6.042V224.694C401.855,222.444,400.938,220.247,399.352,218.66z    M198.363,217.584c20.882,1.101,29.766,11.01,35.46,21.629c2.718,5.333,4.214,10.807,4.989,14.884   c0.772,4.07,0.772,6.373,0.825,6.379c0.136,4.663,3.993,8.356,8.654,8.291c4.663-0.064,8.415-3.868,8.421-8.531   c-0.044-0.021,0.045-10.554,5.331-21.107c5.517-10.51,14.251-20.42,35.93-21.546c11.167,0.013,34.963,12.925,38.051,46.944   l-88.558,52.684l-87.181-52.049C163.221,230.654,187.14,217.603,198.363,217.584z M384.78,236.204   c-1.012,0.169-2.009,0.518-2.947,1.073l-29.92,17.799c-1.515-8.229-4.05-15.513-7.313-21.844c17.615,0,31.761,0,40.18,0V236.204z    M144.358,255.656l-34.213-20.426v-1.998c8.646,0,23.341,0,41.657,0C148.461,239.712,145.876,247.188,144.358,255.656z    M110.146,255.117l107.528,64.191l-107.528,92.751V255.117z M233.126,328.531l9.958,5.945c2.692,1.605,6.047,1.612,8.74,0.014   l11.139-6.627l108.469,91.776H127.494L233.126,328.531z M278.488,318.629l106.292-63.235v153.173L278.488,318.629z M247.434,87.537   l124.328,128.619c-10.286,0-23.715,0-39.093,0c-0.186,0-0.366,0.015-0.55,0.028c-10.673-10.47-23.565-15.618-34.323-15.679   l-0.325,0.007c-17.868,0.514-30.878,7.173-39.724,15.735c-0.39-0.054-0.781-0.092-1.184-0.092c-5.733,0-11.49,0-17.227,0   c-0.454,0-0.896,0.046-1.331,0.114c-8.799-8.54-21.616-15.214-39.12-15.757l-0.336-0.007c-10.985,0.063-24.156,5.435-34.936,16.346   c-1.035-0.446-2.174-0.695-3.373-0.695c-15.175,0-28.345,0-38.339,0L247.434,87.537z" fill="#959595"/>
</g>
</svg>